CPLD/Auto_manual/simulation/qsim/Auto_manual.msim.vcd
$comment
	File created using the following command:
		vcd file Auto_manual.msim.vcd -direction
$end
$date
	Sun Jul 16 00:05:52 2017
$end
$version
	ModelSim Version 10.5b
$end
$timescale
	1ps
$end

$scope module Auto_manual_vlg_vec_tst $end
$var reg 1 ! clk $end
$var reg 1 " MCU_Chan1 $end
$var reg 1 # MCU_Chan2 $end
$var reg 1 $ MCU_Chan3 $end
$var reg 1 % MCU_Chan4 $end
$var reg 1 & RCV_Chan1 $end
$var reg 1 ' RCV_Chan2 $end
$var reg 1 ( RCV_Chan3 $end
$var reg 1 ) RCV_Chan4 $end
$var reg 1 * RCV_Chan5 $end
$var wire 1 + Chan1 $end
$var wire 1 , Chan2 $end
$var wire 1 - Chan3 $end
$var wire 1 . Chan4 $end
$var wire 1 / test [31] $end
$var wire 1 0 test [30] $end
$var wire 1 1 test [29] $end
$var wire 1 2 test [28] $end
$var wire 1 3 test [27] $end
$var wire 1 4 test [26] $end
$var wire 1 5 test [25] $end
$var wire 1 6 test [24] $end
$var wire 1 7 test [23] $end
$var wire 1 8 test [22] $end
$var wire 1 9 test [21] $end
$var wire 1 : test [20] $end
$var wire 1 ; test [19] $end
$var wire 1 < test [18] $end
$var wire 1 = test [17] $end
$var wire 1 > test [16] $end
$var wire 1 ? test [15] $end
$var wire 1 @ test [14] $end
$var wire 1 A test [13] $end
$var wire 1 B test [12] $end
$var wire 1 C test [11] $end
$var wire 1 D test [10] $end
$var wire 1 E test [9] $end
$var wire 1 F test [8] $end
$var wire 1 G test [7] $end
$var wire 1 H test [6] $end
$var wire 1 I test [5] $end
$var wire 1 J test [4] $end
$var wire 1 K test [3] $end
$var wire 1 L test [2] $end
$var wire 1 M test [1] $end
$var wire 1 N test [0] $end
$var wire 1 O Trigger $end

$scope module i1 $end
$var wire 1 P gnd $end
$var wire 1 Q vcc $end
$var wire 1 R unknown $end
$var tri1 1 S devclrn $end
$var tri1 1 T devpor $end
$var tri1 1 U devoe $end
$var wire 1 V RCV_Chan1~combout $end
$var wire 1 W MCU_Chan1~combout $end
$var wire 1 X clk~combout $end
$var wire 1 Y RCV_Chan5~combout $end
$var wire 1 Z inst|pre_PulIn~regout $end
$var wire 1 [ inst|Equal1~1_combout $end
$var wire 1 \ inst|temp[0]~3 $end
$var wire 1 ] inst|temp[0]~3COUT1_33 $end
$var wire 1 ^ inst|temp[1]~1 $end
$var wire 1 _ inst|temp[1]~1COUT1_34 $end
$var wire 1 ` inst|temp[2]~7 $end
$var wire 1 a inst|temp[3]~5 $end
$var wire 1 b inst|temp[3]~5COUT1_35 $end
$var wire 1 c inst|temp[4]~9 $end
$var wire 1 d inst|temp[4]~9COUT1_36 $end
$var wire 1 e inst|temp[5]~11 $end
$var wire 1 f inst|temp[5]~11COUT1_37 $end
$var wire 1 g inst|temp[6]~13 $end
$var wire 1 h inst|temp[6]~13COUT1_38 $end
$var wire 1 i inst|temp[7]~15 $end
$var wire 1 j inst|temp[8]~17 $end
$var wire 1 k inst|temp[8]~17COUT1_39 $end
$var wire 1 l inst|temp[9]~19 $end
$var wire 1 m inst|temp[9]~19COUT1_40 $end
$var wire 1 n inst|temp[10]~21 $end
$var wire 1 o inst|temp[10]~21COUT1_41 $end
$var wire 1 p inst|Equal1~0 $end
$var wire 1 q inst2|LessThan0~2 $end
$var wire 1 r inst2|LessThan0~1 $end
$var wire 1 s inst|temp[11]~23 $end
$var wire 1 t inst|temp[11]~23COUT1_42 $end
$var wire 1 u inst|temp[12]~25 $end
$var wire 1 v inst|temp[13]~27 $end
$var wire 1 w inst|temp[13]~27COUT1_43 $end
$var wire 1 x inst|temp[14]~29 $end
$var wire 1 y inst|temp[14]~29COUT1_44 $end
$var wire 1 z inst2|LessThan0~3 $end
$var wire 1 { inst2|LessThan0~0 $end
$var wire 1 | inst2|LessThan0~4_combout $end
$var wire 1 } inst2|flag~regout $end
$var wire 1 ~ inst2|pre_flag~regout $end
$var wire 1 !! inst2|count[0]~63 $end
$var wire 1 "! inst2|count[1]~61 $end
$var wire 1 #! inst2|count[1]~61COUT1_65 $end
$var wire 1 $! inst2|count[2]~59 $end
$var wire 1 %! inst2|count[2]~59COUT1_66 $end
$var wire 1 &! inst2|count[3]~57 $end
$var wire 1 '! inst2|count[3]~57COUT1_67 $end
$var wire 1 (! inst2|count[4]~55 $end
$var wire 1 )! inst2|count[4]~55COUT1_68 $end
$var wire 1 *! inst2|count[5]~53 $end
$var wire 1 +! inst2|count[6]~51 $end
$var wire 1 ,! inst2|count[6]~51COUT1_69 $end
$var wire 1 -! inst2|count[7]~49 $end
$var wire 1 .! inst2|count[7]~49COUT1_70 $end
$var wire 1 /! inst2|count[8]~47 $end
$var wire 1 0! inst2|count[8]~47COUT1_71 $end
$var wire 1 1! inst2|count[9]~45 $end
$var wire 1 2! inst2|count[9]~45COUT1_72 $end
$var wire 1 3! inst2|count[10]~43 $end
$var wire 1 4! inst2|count[11]~41 $end
$var wire 1 5! inst2|count[11]~41COUT1_73 $end
$var wire 1 6! inst2|count[12]~39 $end
$var wire 1 7! inst2|count[12]~39COUT1_74 $end
$var wire 1 8! inst2|count[13]~37 $end
$var wire 1 9! inst2|count[13]~37COUT1_75 $end
$var wire 1 :! inst2|count[14]~35 $end
$var wire 1 ;! inst2|count[14]~35COUT1_76 $end
$var wire 1 <! inst2|count[15]~33 $end
$var wire 1 =! inst2|count[16]~31 $end
$var wire 1 >! inst2|count[16]~31COUT1_77 $end
$var wire 1 ?! inst2|count[17]~29 $end
$var wire 1 @! inst2|count[17]~29COUT1_78 $end
$var wire 1 A! inst2|count[18]~27 $end
$var wire 1 B! inst2|count[18]~27COUT1_79 $end
$var wire 1 C! inst2|count[19]~25 $end
$var wire 1 D! inst2|count[19]~25COUT1_80 $end
$var wire 1 E! inst2|count[20]~23 $end
$var wire 1 F! inst2|count[21]~21 $end
$var wire 1 G! inst2|count[21]~21COUT1_81 $end
$var wire 1 H! inst2|count[22]~19 $end
$var wire 1 I! inst2|count[22]~19COUT1_82 $end
$var wire 1 J! inst2|count[23]~17 $end
$var wire 1 K! inst2|count[23]~17COUT1_83 $end
$var wire 1 L! inst2|count[24]~15 $end
$var wire 1 M! inst2|count[24]~15COUT1_84 $end
$var wire 1 N! inst2|count[25]~13 $end
$var wire 1 O! inst2|count[26]~11 $end
$var wire 1 P! inst2|count[26]~11COUT1_85 $end
$var wire 1 Q! inst2|count[27]~9 $end
$var wire 1 R! inst2|count[27]~9COUT1_86 $end
$var wire 1 S! inst2|count[28]~7 $end
$var wire 1 T! inst2|count[28]~7COUT1_87 $end
$var wire 1 U! inst2|count[29]~5 $end
$var wire 1 V! inst2|count[29]~5COUT1_88 $end
$var wire 1 W! inst2|count[30]~3 $end
$var wire 1 X! inst2|LessThan1~7_combout $end
$var wire 1 Y! inst2|LessThan1~8_combout $end
$var wire 1 Z! inst2|LessThan1~5_combout $end
$var wire 1 [! inst2|LessThan1~6_combout $end
$var wire 1 \! inst2|LessThan1~1_combout $end
$var wire 1 ]! inst2|LessThan1~3_combout $end
$var wire 1 ^! inst2|LessThan1~0_combout $end
$var wire 1 _! inst2|LessThan1~2_combout $end
$var wire 1 `! inst2|LessThan1~4_combout $end
$var wire 1 a! inst2|LessThan1~9_combout $end
$var wire 1 b! inst2|wait_flag~regout $end
$var wire 1 c! inst2|wait_flag~2 $end
$var wire 1 d! inst2|Trigger~regout $end
$var wire 1 e! inst2|Chan1~0_combout $end
$var wire 1 f! MCU_Chan2~combout $end
$var wire 1 g! RCV_Chan2~combout $end
$var wire 1 h! inst2|Chan2~0_combout $end
$var wire 1 i! RCV_Chan3~combout $end
$var wire 1 j! MCU_Chan3~combout $end
$var wire 1 k! inst2|Chan3~0_combout $end
$var wire 1 l! MCU_Chan4~combout $end
$var wire 1 m! RCV_Chan4~combout $end
$var wire 1 n! inst2|Chan4~0_combout $end
$var wire 1 o! inst2|count [31] $end
$var wire 1 p! inst2|count [30] $end
$var wire 1 q! inst2|count [29] $end
$var wire 1 r! inst2|count [28] $end
$var wire 1 s! inst2|count [27] $end
$var wire 1 t! inst2|count [26] $end
$var wire 1 u! inst2|count [25] $end
$var wire 1 v! inst2|count [24] $end
$var wire 1 w! inst2|count [23] $end
$var wire 1 x! inst2|count [22] $end
$var wire 1 y! inst2|count [21] $end
$var wire 1 z! inst2|count [20] $end
$var wire 1 {! inst2|count [19] $end
$var wire 1 |! inst2|count [18] $end
$var wire 1 }! inst2|count [17] $end
$var wire 1 ~! inst2|count [16] $end
$var wire 1 !" inst2|count [15] $end
$var wire 1 "" inst2|count [14] $end
$var wire 1 #" inst2|count [13] $end
$var wire 1 $" inst2|count [12] $end
$var wire 1 %" inst2|count [11] $end
$var wire 1 &" inst2|count [10] $end
$var wire 1 '" inst2|count [9] $end
$var wire 1 (" inst2|count [8] $end
$var wire 1 )" inst2|count [7] $end
$var wire 1 *" inst2|count [6] $end
$var wire 1 +" inst2|count [5] $end
$var wire 1 ," inst2|count [4] $end
$var wire 1 -" inst2|count [3] $end
$var wire 1 ." inst2|count [2] $end
$var wire 1 /" inst2|count [1] $end
$var wire 1 0" inst2|count [0] $end
$var wire 1 1" inst|d [15] $end
$var wire 1 2" inst|d [14] $end
$var wire 1 3" inst|d [13] $end
$var wire 1 4" inst|d [12] $end
$var wire 1 5" inst|d [11] $end
$var wire 1 6" inst|d [10] $end
$var wire 1 7" inst|d [9] $end
$var wire 1 8" inst|d [8] $end
$var wire 1 9" inst|d [7] $end
$var wire 1 :" inst|d [6] $end
$var wire 1 ;" inst|d [5] $end
$var wire 1 <" inst|d [4] $end
$var wire 1 =" inst|d [3] $end
$var wire 1 >" inst|d [2] $end
$var wire 1 ?" inst|d [1] $end
$var wire 1 @" inst|d [0] $end
$var wire 1 A" inst|temp [15] $end
$var wire 1 B" inst|temp [14] $end
$var wire 1 C" inst|temp [13] $end
$var wire 1 D" inst|temp [12] $end
$var wire 1 E" inst|temp [11] $end
$var wire 1 F" inst|temp [10] $end
$var wire 1 G" inst|temp [9] $end
$var wire 1 H" inst|temp [8] $end
$var wire 1 I" inst|temp [7] $end
$var wire 1 J" inst|temp [6] $end
$var wire 1 K" inst|temp [5] $end
$var wire 1 L" inst|temp [4] $end
$var wire 1 M" inst|temp [3] $end
$var wire 1 N" inst|temp [2] $end
$var wire 1 O" inst|temp [1] $end
$var wire 1 P" inst|temp [0] $end
$upscope $end
$upscope $end
$enddefinitions $end
#0
$dumpvars
0!
0"
0#
0$
0%
0&
0'
0(
0)
0*
0+
0,
0-
0.
0N
0M
0L
0K
0J
0I
0H
0G
0F
0E
0D
0C
0B
0A
0@
0?
0>
0=
0<
0;
0:
09
08
07
06
05
04
03
02
01
00
0/
0O
0P
1Q
xR
1S
1T
1U
0V
0W
0X
0Y
0Z
0[
0\
0]
1^
1_
0`
1a
1b
0c
0d
1e
1f
0g
0h
1i
0j
0k
1l
1m
0n
0o
0p
1q
1r
1s
1t
0u
1v
1w
0x
0y
1z
1{
1|
0}
0~
0!!
1"!
1#!
0$!
0%!
1&!
1'!
0(!
0)!
1*!
0+!
0,!
1-!
1.!
0/!
00!
11!
12!
03!
14!
15!
06!
07!
18!
19!
0:!
0;!
1<!
0=!
0>!
1?!
1@!
0A!
0B!
1C!
1D!
0E!
1F!
1G!
0H!
0I!
1J!
1K!
0L!
0M!
1N!
0O!
0P!
1Q!
1R!
0S!
0T!
1U!
1V!
0W!
1X!
1Y!
1Z!
1[!
1\!
1]!
1^!
1_!
1`!
0a!
0b!
0c!
0d!
0e!
0f!
0g!
0h!
0i!
0j!
0k!
0l!
0m!
0n!
00"
0/"
0."
0-"
0,"
0+"
0*"
0)"
0("
0'"
0&"
0%"
0$"
0#"
0""
0!"
0~!
0}!
0|!
0{!
0z!
0y!
0x!
0w!
0v!
0u!
0t!
0s!
0r!
0q!
0p!
0o!
0@"
0?"
0>"
0="
0<"
0;"
0:"
09"
08"
07"
06"
05"
04"
03"
02"
01"
0P"
0O"
0N"
0M"
0L"
0K"
0J"
0I"
0H"
0G"
0F"
0E"
0D"
0C"
0B"
0A"
$end
#2500
1!
1X
#5000
0!
0X
#7500
1!
1X
#10000
0!
0X
#12500
1!
1X
#15000
0!
0X
#17500
1!
1X
#20000
0!
0X
#22500
1!
1X
#25000
0!
0X
#27500
1!
1X
#30000
0!
0X
#32500
1!
1X
#35000
1&
1'
1(
1)
0!
1V
1g!
1i!
1m!
0X
1e!
1h!
1k!
1n!
1+
1,
1-
1.
#37500
1!
1X
#40000
1"
1#
1$
1%
0!
1W
1f!
1j!
1l!
0X
#42500
1!
1X
#45000
1*
0!
1Y
0X
1[
#47500
1!
1X
1Z
0[
#50000
0&
0'
0(
0)
0"
0#
0$
0%
0*
0!
0V
0g!
0i!
0m!
0W
0f!
0j!
0l!
0Y
0X
0e!
0h!
0k!
0n!
1p
0+
0,
0-
0.
#52500
1!
1X
0Z
0p
#55000
0!
0X
#57500
1!
1X
#60000
0!
0X
#62500
1!
1X
#65000
0!
0X
#67500
1!
1X
#70000
0!
0X
#72500
1!
1X
#75000
0!
0X
#77500
1!
1X
#80000
0!
0X
#82500
1!
1X
#85000
1&
1'
1(
1)
0!
1V
1g!
1i!
1m!
0X
1e!
1h!
1k!
1n!
1+
1,
1-
1.
#87500
1!
1X
#90000
1"
1#
1$
1%
0!
1W
1f!
1j!
1l!
0X
#92500
1!
1X
#95000
1*
0!
1Y
0X
1[
#97500
1!
1X
1Z
0[
#100000
0&
0'
0(
0)
0"
0#
0$
0%
0*
0!
0V
0g!
0i!
0m!
0W
0f!
0j!
0l!
0Y
0X
0e!
0h!
0k!
0n!
1p
0+
0,
0-
0.
#102500
1!
1X
0Z
0p
#105000
0!
0X
#107500
1!
1X
#110000
0!
0X
#112500
1!
1X
#115000
0!
0X
#117500
1!
1X
#120000
0!
0X
#122500
1!
1X
#125000
0!
0X
#127500
1!
1X
#130000
0!
0X
#132500
1!
1X
#135000
1&
1'
1(
1)
0!
1V
1g!
1i!
1m!
0X
1e!
1h!
1k!
1n!
1+
1,
1-
1.
#137500
1!
1X
#140000
1"
1#
1$
1%
0!
1W
1f!
1j!
1l!
0X
#142500
1!
1X
#145000
1*
0!
1Y
0X
1[
#147500
1!
1X
1Z
0[
#150000
0&
0'
0(
0)
0"
0#
0$
0%
0*
0!
0V
0g!
0i!
0m!
0W
0f!
0j!
0l!
0Y
0X
0e!
0h!
0k!
0n!
1p
0+
0,
0-
0.
#152500
1!
1X
0Z
0p
#155000
0!
0X
#157500
1!
1X
#160000
0!
0X
#162500
1!
1X
#165000
0!
0X
#167500
1!
1X
#170000
0!
0X
#172500
1!
1X
#175000
0!
0X
#177500
1!
1X
#180000
0!
0X
#182500
1!
1X
#185000
1&
1'
1(
1)
0!
1V
1g!
1i!
1m!
0X
1e!
1h!
1k!
1n!
1+
1,
1-
1.
#187500
1!
1X
#190000
1"
1#
1$
1%
0!
1W
1f!
1j!
1l!
0X
#192500
1!
1X
#195000
1*
0!
1Y
0X
1[
#197500
1!
1X
1Z
0[
#200000
0&
0'
0(
0)
0"
0#
0$
0%
0*
0!
0V
0g!
0i!
0m!
0W
0f!
0j!
0l!
0Y
0X
0e!
0h!
0k!
0n!
1p
0+
0,
0-
0.
#202500
1!
1X
0Z
0p
#205000
0!
0X
#207500
1!
1X
#210000
0!
0X
#212500
1!
1X
#215000
0!
0X
#217500
1!
1X
#220000
0!
0X
#222500
1!
1X
#225000
0!
0X
#227500
1!
1X
#230000
0!
0X
#232500
1!
1X
#235000
1&
1'
1(
1)
0!
1V
1g!
1i!
1m!
0X
1e!
1h!
1k!
1n!
1+
1,
1-
1.
#237500
1!
1X
#240000
1"
1#
1$
1%
0!
1W
1f!
1j!
1l!
0X
#242500
1!
1X
#245000
1*
0!
1Y
0X
1[
#247500
1!
1X
1Z
0[
#250000
0&
0'
0(
0)
0"
0#
0$
0%
0*
0!
0V
0g!
0i!
0m!
0W
0f!
0j!
0l!
0Y
0X
0e!
0h!
0k!
0n!
1p
0+
0,
0-
0.
#252500
1!
1X
0Z
0p
#255000
0!
0X
#257500
1!
1X
#260000
0!
0X
#262500
1!
1X
#265000
0!
0X
#267500
1!
1X
#270000
0!
0X
#272500
1!
1X
#275000
0!
0X
#277500
1!
1X
#280000
0!
0X
#282500
1!
1X
#285000
1&
1'
1(
1)
0!
1V
1g!
1i!
1m!
0X
1e!
1h!
1k!
1n!
1+
1,
1-
1.
#287500
1!
1X
#290000
1"
1#
1$
1%
0!
1W
1f!
1j!
1l!
0X
#292500
1!
1X
#295000
1*
0!
1Y
0X
1[
#297500
1!
1X
1Z
0[
#300000
0&
0'
0(
0)
0"
0#
0$
0%
0*
0!
0V
0g!
0i!
0m!
0W
0f!
0j!
0l!
0Y
0X
0e!
0h!
0k!
0n!
1p
0+
0,
0-
0.
#302500
1!
1X
0Z
0p
#305000
0!
0X
#307500
1!
1X
#310000
0!
0X
#312500
1!
1X
#315000
0!
0X
#317500
1!
1X
#320000
0!
0X
#322500
1!
1X
#325000
0!
0X
#327500
1!
1X
#330000
0!
0X
#332500
1!
1X
#335000
1&
1'
1(
1)
0!
1V
1g!
1i!
1m!
0X
1e!
1h!
1k!
1n!
1+
1,
1-
1.
#337500
1!
1X
#340000
1"
1#
1$
1%
0!
1W
1f!
1j!
1l!
0X
#342500
1!
1X
#345000
1*
0!
1Y
0X
1[
#347500
1!
1X
1Z
0[
#350000
0&
0'
0(
0)
0"
0#
0$
0%
0*
0!
0V
0g!
0i!
0m!
0W
0f!
0j!
0l!
0Y
0X
0e!
0h!
0k!
0n!
1p
0+
0,
0-
0.
#352500
1!
1X
0Z
0p
#355000
0!
0X
#357500
1!
1X
#360000
0!
0X
#362500
1!
1X
#365000
0!
0X
#367500
1!
1X
#370000
0!
0X
#372500
1!
1X
#375000
0!
0X
#377500
1!
1X
#380000
1*
0!
1Y
0X
1[
#382500
1!
1X
1Z
0[
#385000
1&
1'
1(
1)
0!
1V
1g!
1i!
1m!
0X
1e!
1h!
1k!
1n!
1+
1,
1-
1.
#387500
1!
1X
1P"
1]
1\
#390000
1"
1#
1$
1%
0!
1W
1f!
1j!
1l!
0X
#392500
1!
1X
1O"
0P"
0_
0^
0]
0\
1_
1^
#395000
0!
0X
#397500
1!
1X
1P"
1]
1\
0_
0^
#400000
0*
0&
0'
0(
0)
0"
0#
0$
0%
0!
0Y
0V
0g!
0i!
0m!
0W
0f!
0j!
0l!
0X
1p
0e!
0h!
0k!
0n!
0+
0,
0-
0.
#402500
1!
1X
1?"
1@"
0Z
0{
0p
0|
1c!
#405000
0!
0X
#407500
1!
1X
1b!
10"
1}
1!!
1N
#410000
0!
0X
#412500
1!
1X
1/"
00"
1~
0#!
0!!
1M
0N
#415000
0!
0X
#417500
1!
1X
10"
1!!
1N
#420000
0!
0X
#422500
1!
1X
1."
0/"
00"
1%!
1#!
0!!
1L
0M
0N
0%!
#425000
0!
0X
#427500
1!
1X
10"
1!!
1N
#430000
1*
0!
1Y
0X
1[
#432500
1!
1X
1/"
00"
0O"
0P"
1Z
0#!
0!!
1_
1^
0]
0\
0[
1M
0N
1%!
#435000
1&
1'
1(
1)
0!
1V
1g!
1i!
1m!
0X
1e!
1h!
1k!
1n!
1+
1,
1-
1.
#437500
1!
1X
10"
1P"
1!!
1]
1\
1N
#440000
1"
1#
1$
1%
0!
1W
1f!
1j!
1l!
0X
#442500
1!
1X
1-"
0."
0/"
00"
1O"
0P"
0'!
0%!
1#!
0!!
0_
0^
0]
0\
1K
0L
0M
0N
1'!
1_
1^
#445000
0!
0X
#447500
1!
1X
10"
1P"
1!!
1]
1\
1N
0_
0^
#450000
0*
0&
0'
0(
0)
0"
0#
0$
0%
0!
0Y
0V
0g!
0i!
0m!
0W
0f!
0j!
0l!
0X
1p
0e!
0h!
0k!
0n!
0+
0,
0-
0.
#452500
1!
1X
1/"
00"
0Z
0#!
0!!
0p
1M
0N
#455000
0!
0X
#457500
1!
1X
10"
1!!
1N
#460000
0!
0X
#462500
1!
1X
1."
0/"
00"
0^!
1%!
1#!
0!!
1L
0M
0N
0`!
0'!
0%!
1a!
1'!
#465000
0!
0X
#467500
1!
1X
1d!
0b!
0-"
0."
0c!
1^!
1O
0K
0L
1`!
0a!
#470000
0!
0X
#472500
1!
1X
#475000
0!
0X
#477500
1!
1X
#480000
1*
0!
1Y
0X
1[
#482500
1!
1X
0O"
0P"
1Z
1_
1^
0]
0\
0[
#485000
1&
1'
1(
1)
0!
1V
1g!
1i!
1m!
0X
#487500
1!
1X
1P"
1]
1\
#490000
1"
1#
1$
1%
0!
1W
1f!
1j!
1l!
0X
1e!
1h!
1k!
1n!
1+
1,
1-
1.
#492500
1!
1X
1O"
0P"
0_
0^
0]
0\
1_
1^
#495000
0!
0X
#497500
1!
1X
1P"
1]
1\
0_
0^
#500000
0*
0&
0'
0(
0)
0"
0#
0$
0%
0!
0Y
0V
0g!
0i!
0m!
0W
0f!
0j!
0l!
0X
1p
0e!
0h!
0k!
0n!
0+
0,
0-
0.
#502500
1!
1X
0Z
0p
#505000
0!
0X
#507500
1!
1X
#510000
0!
0X
#512500
1!
1X
#515000
0!
0X
#517500
1!
1X
#520000
0!
0X
#522500
1!
1X
#525000
0!
0X
#527500
1!
1X
#530000
1*
0!
1Y
0X
1[
#532500
1!
1X
0O"
0P"
1Z
1_
1^
0]
0\
0[
#535000
1&
1'
1(
1)
0!
1V
1g!
1i!
1m!
0X
#537500
1!
1X
1P"
1]
1\
#540000
1"
1#
1$
1%
0!
1W
1f!
1j!
1l!
0X
1e!
1h!
1k!
1n!
1+
1,
1-
1.
#542500
1!
1X
1O"
0P"
0_
0^
0]
0\
1_
1^
#545000
0!
0X
#547500
1!
1X
1P"
1]
1\
0_
0^
#550000
0*
0&
0'
0(
0)
0"
0#
0$
0%
0!
0Y
0V
0g!
0i!
0m!
0W
0f!
0j!
0l!
0X
1p
0e!
0h!
0k!
0n!
0+
0,
0-
0.
#552500
1!
1X
0Z
0p
#555000
0!
0X
#557500
1!
1X
#560000
0!
0X
#562500
1!
1X
#565000
0!
0X
#567500
1!
1X
#570000
0!
0X
#572500
1!
1X
#575000
0!
0X
#577500
1!
1X
#580000
1*
0!
1Y
0X
1[
#582500
1!
1X
0O"
0P"
1Z
1_
1^
0]
0\
0[
#585000
1&
1'
1(
1)
0!
1V
1g!
1i!
1m!
0X
#587500
1!
1X
1P"
1]
1\
#590000
1"
1#
1$
1%
0!
1W
1f!
1j!
1l!
0X
1e!
1h!
1k!
1n!
1+
1,
1-
1.
#592500
1!
1X
1O"
0P"
0_
0^
0]
0\
1_
1^
#595000
0!
0X
#597500
1!
1X
1P"
1]
1\
0_
0^
#600000
0*
0&
0'
0(
0)
0"
0#
0$
0%
0!
0Y
0V
0g!
0i!
0m!
0W
0f!
0j!
0l!
0X
1p
0e!
0h!
0k!
0n!
0+
0,
0-
0.
#602500
1!
1X
0Z
0p
#605000
0!
0X
#607500
1!
1X
#610000
0!
0X
#612500
1!
1X
#615000
0!
0X
#617500
1!
1X
#620000
0!
0X
#622500
1!
1X
#625000
0!
0X
#627500
1!
1X
#630000
1*
0!
1Y
0X
1[
#632500
1!
1X
0O"
0P"
1Z
1_
1^
0]
0\
0[
#635000
1&
1'
1(
1)
0!
1V
1g!
1i!
1m!
0X
#637500
1!
1X
1P"
1]
1\
#640000
1"
1#
1$
1%
0!
1W
1f!
1j!
1l!
0X
1e!
1h!
1k!
1n!
1+
1,
1-
1.
#642500
1!
1X
1O"
0P"
0_
0^
0]
0\
1_
1^
#645000
0!
0X
#647500
1!
1X
1P"
1]
1\
0_
0^
#650000
0*
0&
0'
0(
0)
0"
0#
0$
0%
0!
0Y
0V
0g!
0i!
0m!
0W
0f!
0j!
0l!
0X
1p
0e!
0h!
0k!
0n!
0+
0,
0-
0.
#652500
1!
1X
0Z
0p
#655000
0!
0X
#657500
1!
1X
#660000
0!
0X
#662500
1!
1X
#665000
0!
0X
#667500
1!
1X
#670000
0!
0X
#672500
1!
1X
#675000
0!
0X
#677500
1!
1X
#680000
1*
0!
1Y
0X
1[
#682500
1!
1X
0O"
0P"
1Z
1_
1^
0]
0\
0[
#685000
1&
1'
1(
1)
0!
1V
1g!
1i!
1m!
0X
#687500
1!
1X
1P"
1]
1\
#690000
1"
1#
1$
1%
0!
1W
1f!
1j!
1l!
0X
1e!
1h!
1k!
1n!
1+
1,
1-
1.
#692500
1!
1X
1O"
0P"
0_
0^
0]
0\
1_
1^
#695000
0!
0X
#697500
1!
1X
1P"
1]
1\
0_
0^
#700000
0*
0&
0'
0(
0)
0"
0#
0$
0%
0!
0Y
0V
0g!
0i!
0m!
0W
0f!
0j!
0l!
0X
1p
0e!
0h!
0k!
0n!
0+
0,
0-
0.
#702500
1!
1X
0Z
0p
#705000
0!
0X
#707500
1!
1X
#710000
0!
0X
#712500
1!
1X
#715000
0!
0X
#717500
1!
1X
#720000
0!
0X
#722500
1!
1X
#725000
0!
0X
#727500
1!
1X
#730000
1*
0!
1Y
0X
1[
#732500
1!
1X
0O"
0P"
1Z
1_
1^
0]
0\
0[
#735000
1&
1'
1(
1)
0!
1V
1g!
1i!
1m!
0X
#737500
1!
1X
1P"
1]
1\
#740000
1"
1#
1$
1%
0!
1W
1f!
1j!
1l!
0X
1e!
1h!
1k!
1n!
1+
1,
1-
1.
#742500
1!
1X
1O"
0P"
0_
0^
0]
0\
1_
1^
#745000
0!
0X
#747500
1!
1X
1P"
1]
1\
0_
0^
#750000
0*
0&
0'
0(
0)
0"
0#
0$
0%
0!
0Y
0V
0g!
0i!
0m!
0W
0f!
0j!
0l!
0X
1p
0e!
0h!
0k!
0n!
0+
0,
0-
0.
#752500
1!
1X
0Z
0p
#755000
0!
0X
#757500
1!
1X
#760000
0!
0X
#762500
1!
1X
#765000
0!
0X
#767500
1!
1X
#770000
0!
0X
#772500
1!
1X
#775000
0!
0X
#777500
1!
1X
#780000
0!
0X
#782500
1!
1X
#785000
1&
1'
1(
1)
0!
1V
1g!
1i!
1m!
0X
#787500
1!
1X
#790000
1"
1#
1$
1%
0!
1W
1f!
1j!
1l!
0X
1e!
1h!
1k!
1n!
1+
1,
1-
1.
#792500
1!
1X
#795000
1*
0!
1Y
0X
1[
#797500
1!
1X
0O"
0P"
1Z
1_
1^
0]
0\
0[
#800000
0&
0'
0(
0)
0"
0#
0$
0%
0*
0!
0V
0g!
0i!
0m!
0W
0f!
0j!
0l!
0Y
0X
0e!
0h!
0k!
0n!
1p
0+
0,
0-
0.
#802500
1!
1X
0?"
0@"
0Z
1{
0p
1|
#805000
0!
0X
#807500
1!
1X
0d!
0}
0O
#810000
0!
0X
#812500
1!
1X
0~
#815000
0!
0X
#817500
1!
1X
#820000
0!
0X
#822500
1!
1X
#825000
0!
0X
#827500
1!
1X
#830000
0!
0X
#832500
1!
1X
#835000
1&
1'
1(
1)
0!
1V
1g!
1i!
1m!
0X
1e!
1h!
1k!
1n!
1+
1,
1-
1.
#837500
1!
1X
#840000
1"
1#
1$
1%
0!
1W
1f!
1j!
1l!
0X
#842500
1!
1X
#845000
1*
0!
1Y
0X
1[
#847500
1!
1X
1Z
0[
#850000
0&
0'
0(
0)
0"
0#
0$
0%
0*
0!
0V
0g!
0i!
0m!
0W
0f!
0j!
0l!
0Y
0X
0e!
0h!
0k!
0n!
1p
0+
0,
0-
0.
#852500
1!
1X
0Z
0p
#855000
0!
0X
#857500
1!
1X
#860000
0!
0X
#862500
1!
1X
#865000
0!
0X
#867500
1!
1X
#870000
0!
0X
#872500
1!
1X
#875000
0!
0X
#877500
1!
1X
#880000
0!
0X
#882500
1!
1X
#885000
1&
1'
1(
1)
0!
1V
1g!
1i!
1m!
0X
1e!
1h!
1k!
1n!
1+
1,
1-
1.
#887500
1!
1X
#890000
1"
1#
1$
1%
0!
1W
1f!
1j!
1l!
0X
#892500
1!
1X
#895000
1*
0!
1Y
0X
1[
#897500
1!
1X
1Z
0[
#900000
0&
0'
0(
0)
0"
0#
0$
0%
0*
0!
0V
0g!
0i!
0m!
0W
0f!
0j!
0l!
0Y
0X
0e!
0h!
0k!
0n!
1p
0+
0,
0-
0.
#902500
1!
1X
0Z
0p
#905000
0!
0X
#907500
1!
1X
#910000
0!
0X
#912500
1!
1X
#915000
0!
0X
#917500
1!
1X
#920000
0!
0X
#922500
1!
1X
#925000
0!
0X
#927500
1!
1X
#930000
0!
0X
#932500
1!
1X
#935000
1&
1'
1(
1)
0!
1V
1g!
1i!
1m!
0X
1e!
1h!
1k!
1n!
1+
1,
1-
1.
#937500
1!
1X
#940000
1"
1#
1$
1%
0!
1W
1f!
1j!
1l!
0X
#942500
1!
1X
#945000
1*
0!
1Y
0X
1[
#947500
1!
1X
1Z
0[
#950000
0&
0'
0(
0)
0"
0#
0$
0%
0*
0!
0V
0g!
0i!
0m!
0W
0f!
0j!
0l!
0Y
0X
0e!
0h!
0k!
0n!
1p
0+
0,
0-
0.
#952500
1!
1X
0Z
0p
#955000
0!
0X
#957500
1!
1X
#960000
0!
0X
#962500
1!
1X
#965000
0!
0X
#967500
1!
1X
#970000
0!
0X
#972500
1!
1X
#975000
0!
0X
#977500
1!
1X
#980000
0!
0X
#982500
1!
1X
#985000
1&
1'
1(
1)
0!
1V
1g!
1i!
1m!
0X
1e!
1h!
1k!
1n!
1+
1,
1-
1.
#987500
1!
1X
#990000
1"
1#
1$
1%
0!
1W
1f!
1j!
1l!
0X
#992500
1!
1X
#995000
1*
0!
1Y
0X
1[
#997500
1!
1X
1Z
0[
